…
    ## # A tibble: 0 x 6
    ## # … with 6 variables: address <chr>, city <chr>, state <chr>, zip <chr>,
    ## #   longitude <dbl>, latitude <dbl>

### Exercise 6

Add a country variable to the Denny’s dataset and set all observations
equal to “United States.”

``` r
dn %>% 
  mutate(country = "United States")
```

    ## # A tibble: 1,643 x 7
    ##    address                city         state zip   longitude latitude country   
    ##    <chr>                  <chr>        <chr> <chr>     <dbl>    <dbl> <chr>     
    ##  1 2900 Denali            Anchorage    AK    99503    -150.      61.2 United St…
    ##  2 3850 Debarr Road       Anchorage    AK    99508    -150.      61.2 United St…
    ##  3 1929 Airport Way       Fairbanks    AK    99701    -148.      64.8 United St…
    ##  4 230 Connector Dr       Auburn       AL    36849     -85.5     32.6 United St…
    ##  5 224 Daniel Payne Driv… Birmingham   AL    35207     -86.8     33.6 United St…
    ##  6 900 16th St S, Common… Birmingham   AL    35294     -86.8     33.5 United St…
    ##  7 5931 Alabama Highway,… Cullman      AL    35056     -86.9     34.2 United St…
    ##  8 2190 Ross Clark Circle Dothan       AL    36301     -85.4     31.2 United St…
    ##  9 900 Tyson Rd           Hope Hull (… AL    36043     -86.4     32.2 United St…
    ## 10 4874 University Drive  Huntsville   AL    35816     -86.7     34.7 United St…
    ## # … with 1,633 more rows
…
``` r
lq <- lq %>%
  filter(country == "United States")
```

### Exercise 9

``` r
dn %>%
  count(state) %>%
  inner_join(states, by = c("state" = "abbreviation")) %>% 
  arrange(n)
```

    ## # A tibble: 51 x 4
    ##    state     n name                     area
    ##    <chr> <int> <chr>                   <dbl>
    ##  1 DE        1 Delaware               2489. 
    ##  2 DC        2 District of Columbia     68.3
    ##  3 VT        2 Vermont                9616. 
    ##  4 AK        3 Alaska               665384. 
    ##  5 IA        3 Iowa                  56273. 
    ##  6 NH        3 New Hampshire          9349. 
    ##  7 SD        3 South Dakota          77116. 
    ##  8 WV        3 West Virginia         24230. 
    ##  9 LA        4 Louisiana             52378. 
    ## 10 MT        4 Montana              147040. 
    ## # … with 41 more rows

``` r
lq %>% 
  count(state) %>% 
  inner_join(states, by = c("state" = "abbreviation"))%>% 
  arrange(n)
```

    ## # A tibble: 48 x 4
    ##    state     n name             area
    ##    <chr> <int> <chr>           <dbl>
    ##  1 ME        1 Maine          35380.
    ##  2 AK        2 Alaska        665384.
    ##  3 NH        2 New Hampshire   9349.
    ##  4 RI        2 Rhode Island    1545.
    ##  5 SD        2 South Dakota   77116.
    ##  6 VT        2 Vermont         9616.
    ##  7 WV        3 West Virginia  24230.
    ##  8 WY        3 Wyoming        97813.
    ##  9 IA        4 Iowa           56273.
    ## 10 MI        4 Michigan       96714.
    ## # … with 38 more rows
…
