Lab 05 - Wrangling spatial data
…
## [1] 28

lq_nc <- lq %>%
  filter(state == "NC") # filter for La Quinta's locations in NC
nrow(lq_nc)  

## [1] 12

# (ii) join these data frames to get a complete list of all possible pairings
dn_lq_nc <- full_join(dn_nc, lq_nc, by = "state")
dn_lq_nc

## # A tibble: 336 x 11
##    address.x  city.x  state zip.x longitude.x latitude.x address.y  city.y zip.y
##    <chr>      <chr>   <chr> <chr>       <dbl>      <dbl> <chr>      <chr>  <chr>
##  1 1 Regent  Ashevi NC    28806       -82.6       35.6 165 Hwy 1 "\nBo 28607
##  2 1 Regent  Ashevi NC    28806       -82.6       35.6 3127 Sloa "\nCh 28208
##  3 1 Regent  Ashevi NC    28806       -82.6       35.6 4900 Sout "\nCh 28217
##  4 1 Regent  Ashevi NC    28806       -82.6       35.6 4414 Durh "\nDu 27707
##  5 1 Regent  Ashevi NC    28806       -82.6       35.6 1910 West "\nDu 27713
##  6 1 Regent  Ashevi NC    28806       -82.6       35.6 1201 Lana "\nGr 27407
##  7 1 Regent  Ashevi NC    28806       -82.6       35.6 1607 Fair "\nCo 28613
##  8 1 Regent  Ashevi NC    28806       -82.6       35.6 191 Cresc "\nCa 27518
##  9 1 Regent  Ashevi NC    28806       -82.6       35.6 2211 Summ "\nRa 27612
## 10 1 Regent  Ashevi NC    28806       -82.6       35.6 1001 Aeri "\nMo 27560
## #  with 326 more rows, and 2 more variables: longitude.y <dbl>,
## #   latitude.y <dbl>

# (iii) calculate the distances between all possible pairings of Dennys and La Quinta in NC
dn_lq_nc <- dn_lq_nc %>% 
  mutate(distance = haversine(longitude.x, latitude.x, longitude.y, latitude.y, round = 3))
dn_lq_nc

## # A tibble: 336 x 12
##    address.x  city.x  state zip.x longitude.x latitude.x address.y  city.y zip.y
##    <chr>      <chr>   <chr> <chr>       <dbl>      <dbl> <chr>      <chr>  <chr>
##  1 1 Regent  Ashevi NC    28806       -82.6       35.6 165 Hwy 1 "\nBo 28607
##  2 1 Regent  Ashevi NC    28806       -82.6       35.6 3127 Sloa "\nCh 28208
##  3 1 Regent  Ashevi NC    28806       -82.6       35.6 4900 Sout "\nCh 28217
##  4 1 Regent  Ashevi NC    28806       -82.6       35.6 4414 Durh "\nDu 27707
##  5 1 Regent  Ashevi NC    28806       -82.6       35.6 1910 West "\nDu 27713
##  6 1 Regent  Ashevi NC    28806       -82.6       35.6 1201 Lana "\nGr 27407
##  7 1 Regent  Ashevi NC    28806       -82.6       35.6 1607 Fair "\nCo 28613
##  8 1 Regent  Ashevi NC    28806       -82.6       35.6 191 Cresc "\nCa 27518
##  9 1 Regent  Ashevi NC    28806       -82.6       35.6 2211 Summ "\nRa 27612
## 10 1 Regent  Ashevi NC    28806       -82.6       35.6 1001 Aeri "\nMo 27560
## #  with 326 more rows, and 3 more variables: longitude.y <dbl>,
## #   latitude.y <dbl>, distance <dbl>

# (iv) find the minimum distance between each Dennys and La Quinta location
dn_lq_nc_mindist <- dn_lq_nc %>%
  group_by(address.x) %>%
  summarise(closest = min(distance))  # note the function closest = min(distance) as part of summarise
dn_lq_nc_mindist

## # A tibble: 28 x 2
##    address.x                 closest
##  * <chr>                       <dbl>
##  1 1 Regent Park Boulevard     108. 
##  2 101 Wintergreen Dr          120. 
##  3 103 Sedgehill Dr             26.7
##  4 1043 Jimmie Kerr Road        36.1
##  5 1201 S College Road         188. 
##  6 1209 Burkemount Avenue       39.1
##  7 1493 Us Hwy 74-A Bypass      70.1
##  8 1524 Dabney Dr               59.5
##  9 1550 Four Seasons           115. 
## 10 1800 Princeton-Kenly Road    55.9
## #  with 18 more rows
…
## [1] 200

lq_tx <- lq %>% 
  filter(state == "TX")
nrow(lq_tx)

## [1] 237

# join the two datasets
dn_lq_tx <- full_join(dn_tx, lq_tx, by = "state")
dn_lq_tx

## # A tibble: 47,400 x 11
##    address.x  city.x  state zip.x longitude.x latitude.x address.y  city.y zip.y
##    <chr>      <chr>   <chr> <chr>       <dbl>      <dbl> <chr>      <chr>  <chr>
##  1 120 East  Abilene TX    79601       -99.6       32.4 3018 CatC "\nAb 79606
##  2 120 East  Abilene TX    79601       -99.6       32.4 3501 West "\nAb 79601
##  3 120 East  Abilene TX    79601       -99.6       32.4 14925 Lan "\nAd 75254
##  4 120 East  Abilene TX    79601       -99.6       32.4 909 East  "\nAl 78516
##  5 120 East  Abilene TX    79601       -99.6       32.4 2400 East "\nAl 78332
##  6 120 East  Abilene TX    79601       -99.6       32.4 1220 Nort "\nAl 75013
##  7 120 East  Abilene TX    79601       -99.6       32.4 1165 Hwy  "\nAl 76009
##  8 120 East  Abilene TX    79601       -99.6       32.4 880 South "\nAl 77511
##  9 120 East  Abilene TX    79601       -99.6       32.4 1708 Inte "\nAm 79103
## 10 120 East  Abilene TX    79601       -99.6       32.4 9305 East "\nAm 79118
## #  with 47,390 more rows, and 2 more variables: longitude.y <dbl>,
## #   latitude.y <dbl>

# compute distance
dn_lq_tx <- dn_lq_tx %>% 
  mutate(distance = haversine(longitude.x, latitude.x, longitude.y, latitude.y, round = 3))
dn_lq_tx

## # A tibble: 47,400 x 12
##    address.x  city.x  state zip.x longitude.x latitude.x address.y  city.y zip.y
##    <chr>      <chr>   <chr> <chr>       <dbl>      <dbl> <chr>      <chr>  <chr>
##  1 120 East  Abilene TX    79601       -99.6       32.4 3018 CatC "\nAb 79606
##  2 120 East  Abilene TX    79601       -99.6       32.4 3501 West "\nAb 79601
##  3 120 East  Abilene TX    79601       -99.6       32.4 14925 Lan "\nAd 75254
##  4 120 East  Abilene TX    79601       -99.6       32.4 909 East  "\nAl 78516
##  5 120 East  Abilene TX    79601       -99.6       32.4 2400 East "\nAl 78332
##  6 120 East  Abilene TX    79601       -99.6       32.4 1220 Nort "\nAl 75013
##  7 120 East  Abilene TX    79601       -99.6       32.4 1165 Hwy  "\nAl 76009
##  8 120 East  Abilene TX    79601       -99.6       32.4 880 South "\nAl 77511
##  9 120 East  Abilene TX    79601       -99.6       32.4 1708 Inte "\nAm 79103
## 10 120 East  Abilene TX    79601       -99.6       32.4 9305 East "\nAm 79118
## #  with 47,390 more rows, and 3 more variables: longitude.y <dbl>,
## #   latitude.y <dbl>, distance <dbl>

# compute the closest
dn_lq_tx_mindist <- dn_lq_tx %>% 
  group_by(address.x) %>% 
  summarise(closest = min(distance))
dn_lq_tx_mindist

## # A tibble: 200 x 2
##    address.x             closest
##  * <chr>                   <dbl>
##  1 100 Cottonwood         33.6  
##  2 100 E Pinehurst         1.39 
##  3 100 Us Highway 79 S    33.9  
##  4 101 N Fm 707           10.3  
##  5 1011 Beltway Parkway   14.0  
##  6 1015 Spur 350 West      1.74 
##  7 1015 West Main St       1.10 
##  8 10367 Highway 59       37.6  
##  9 10433 N Central Expwy   0.618
## 10 105 W 42nd St           6.88 
## #  with 190 more rows
…
## [1] 403

lq_ca <- lq %>% 
  filter(state == "CA")
nrow(lq_ca)

## [1] 56

# join the two datasets
dn_lq_ca <- full_join(dn_ca, lq_ca, by = "state")
dn_lq_ca

## # A tibble: 22,568 x 11
##    address.x  city.x  state zip.x longitude.x latitude.x address.y  city.y zip.y
##    <chr>      <chr>   <chr> <chr>       <dbl>      <dbl> <chr>      <chr>  <chr>
##  1 14240 Us  Adelan CA    92301       -117.       34.5 1752 Clem "\nAn 92802
##  2 14240 Us  Adelan CA    92301       -117.       34.5 8858 Spec "\nBa 93308
##  3 14240 Us  Adelan CA    92301       -117.       34.5 3232 Rive "\nBa 93308
##  4 14240 Us  Adelan CA    92301       -117.       34.5 920 Unive "\nBe 94710
##  5 14240 Us  Adelan CA    92301       -117.       34.5 3 Centerp "\nLa 90623
##  6 14240 Us  Adelan CA    92301       -117.       34.5 1771 Rese "\nDa 95618
##  7 14240 Us  Adelan CA    92301       -117.       34.5 6275 Dubl "\nDu 94568
##  8 14240 Us  Adelan CA    92301       -117.       34.5 316 Pittm "\nFa 94534
##  9 14240 Us  Adelan CA    92301       -117.       34.5 190 N. 10 "\nFo 93625
## 10 14240 Us  Adelan CA    92301       -117.       34.5 46200 Lan "\nFr 94538
## #  with 22,558 more rows, and 2 more variables: longitude.y <dbl>,
## #   latitude.y <dbl>

# compute distance
dn_lq_ca <- dn_lq_ca %>% 
  mutate(distance = haversine(longitude.x, latitude.x, longitude.y, latitude.y, round = 3))
dn_lq_ca

## # A tibble: 22,568 x 12
##    address.x  city.x  state zip.x longitude.x latitude.x address.y  city.y zip.y
##    <chr>      <chr>   <chr> <chr>       <dbl>      <dbl> <chr>      <chr>  <chr>
##  1 14240 Us  Adelan CA    92301       -117.       34.5 1752 Clem "\nAn 92802
##  2 14240 Us  Adelan CA    92301       -117.       34.5 8858 Spec "\nBa 93308
##  3 14240 Us  Adelan CA    92301       -117.       34.5 3232 Rive "\nBa 93308
##  4 14240 Us  Adelan CA    92301       -117.       34.5 920 Unive "\nBe 94710
##  5 14240 Us  Adelan CA    92301       -117.       34.5 3 Centerp "\nLa 90623
##  6 14240 Us  Adelan CA    92301       -117.       34.5 1771 Rese "\nDa 95618
##  7 14240 Us  Adelan CA    92301       -117.       34.5 6275 Dubl "\nDu 94568
##  8 14240 Us  Adelan CA    92301       -117.       34.5 316 Pittm "\nFa 94534
##  9 14240 Us  Adelan CA    92301       -117.       34.5 190 N. 10 "\nFo 93625
## 10 14240 Us  Adelan CA    92301       -117.       34.5 46200 Lan "\nFr 94538
## #  with 22,558 more rows, and 3 more variables: longitude.y <dbl>,
## #   latitude.y <dbl>, distance <dbl>

# compute the closest
dn_lq_ca_mindist <- dn_lq_ca %>% 
  group_by(address.x) %>%         # this is the key! 
  summarise(closest = min(distance))
dn_lq_ca_mindist

## # A tibble: 403 x 2
##    address.x            closest
##  * <chr>                  <dbl>
##  1 #2 Serra Monte         6.24 
##  2 10 Airport Blvd        0.093
##  3 1000 Imola Ave        14.5  
##  4 1000 W Steele Lane    58.7  
##  5 1001 E Capitol        13.5  
##  6 1010 W Alameda Ave    24.8  
##  7 1011 Riley Street     11.4  
##  8 1014 N Main St       137.   
##  9 1015 Blossom Hill Rd  15.4  
## 10 1019 East Main St     80.3  
## #  with 393 more rows
…
